…
You can also see how complete the dee2 coverage is:

```
> length(which(res$dee2data==T))
[1] 8721
> length(which(res$dee2data==F))
[1] 1246
```

You can then browse and make targeted searches of this metadata locally with grepl. In this case I will search for studies with "PAR-CLIP" in the abstract.

```
> res[grep("PAR-CLIP",res$study_abstract),]
# A tibble: 21 x 86
   experiment_Insdc experiment_LastMet… experiment_LastUpd… experiment_Publish…
   <lgl>            <dttm>              <dttm>              <dttm>             
 1 TRUE             2014-06-17 23:15:06 2014-06-17 23:15:29 2011-12-09 15:17:33
 2 TRUE             2014-02-25 18:52:07 2014-11-28 16:04:14 2014-11-21 21:37:23
 3 TRUE             2014-03-28 19:34:16 2014-05-23 20:22:05 2014-05-23 11:06:30
 4 TRUE             2013-09-23 16:45:14 2013-09-23 16:45:14 2011-12-09 15:17:15
 5 TRUE             2013-09-23 16:45:14 2013-09-23 16:45:14 2011-12-09 15:17:15
 6 TRUE             2014-03-28 19:34:16 2014-05-23 20:22:05 2014-05-23 11:06:30
 7 TRUE             2014-03-28 19:34:16 2014-05-23 20:22:05 2014-05-23 11:06:30
 8 TRUE             2014-03-28 19:34:16 2015-07-22 21:07:18 2015-07-22 21:07:18
 9 TRUE             2014-02-25 18:52:41 2014-11-28 16:05:03 2014-11-21 21:38:04
10 TRUE             2014-06-17 23:15:06 2014-06-17 23:15:29 2011-12-09 15:17:33
# ... with 11 more rows, and 82 more variables: experiment_Received <dttm>,
#   experiment_Status <chr>, experiment_accession <chr>,
#   experiment_alias <chr>, experiment_attributes <list>,
#   experiment_center_name <chr>, experiment_identifiers <list>,
#   experiment_instrument_model <chr>,
#   experiment_library_construction_protocol <chr>,
#   experiment_library_layout <chr>, experiment_library_selection <chr>,
#   experiment_library_source <chr>, experiment_library_strategy <chr>,
#   experiment_platform <chr>, experiment_title <chr>, experiment_xrefs <list>,
…
